…
```r
rawdata %>% 
  filter(PEAK_OFFPEAK_IND == "Peak Service (Weekdays 6:30-9:30AM, 3:30PM-6:30PM)", ROUTE_TYPE=="Green Line" ) %>% 
  mutate(STOP = str_trim(STOP), rely = 1 - OTP_NUMERATOR/OTP_DENOMINATOR, rely = round(rely, 4))
```

```
## # A tibble: 1,738 x 10
##    SERVICE_DATE PEAK_OFFPEAK_IND MODE_TYPE ROUTE_OR_LINE ROUTE_TYPE STOP 
##    <chr>        <chr>            <chr>     <chr>         <chr>      <chr>
##  1 01-MAR-2016  Peak Service (W… Rail      Green-B Line  Green Line Bost…
##  2 01-MAR-2016  Peak Service (W… Rail      Green-B Line  Green Line Chis…
##  3 01-MAR-2016  Peak Service (W… Rail      Green-E Line  Green Line Prud…
##  4 01-MAR-2016  Peak Service (W… Rail      Green-B Line  Green Line Bost…
##  5 01-MAR-2016  Peak Service (W… Rail      Green-B Line  Green Line Kenm…
##  6 01-MAR-2016  Peak Service (W… Rail      Green-B Line  Green Line Pack…
##  7 01-MAR-2016  Peak Service (W… Rail      Green-D Line  Green Line Boyl…
##  8 01-MAR-2016  Peak Service (W… Rail      Green-E Line  Green Line Nort…
##  9 01-MAR-2016  Peak Service (W… Rail      Green-E Line  Green Line Rive…
## 10 01-MAR-2016  Peak Service (W… Rail      Green-B Line  Green Line Boyl…
## # … with 1,728 more rows, and 4 more variables: METRIC_TYPE <chr>,
## #   OTP_NUMERATOR <dbl>, OTP_DENOMINATOR <dbl>, rely <dbl>
```
…
