Data Wrangling via dplyr
…
104662

We see that Newark ("EWR") had the most flights departing in 2013 followed by "JFK" and lastly by LaGuardia ("LGA"). Note there is a subtle but important difference between sum() and n(). While sum() simply adds up a large set of numbers, the latter counts the number of times each of many different values occur.

Grouping by more than one variable

You are not limited to grouping by one variable! Say you wanted to know the number of flights leaving each of the three New York City airports for each month, we can also group by a second variable month: group_by(origin, month).

by_origin_monthly <- flights %>% 
  group_by(origin, month) %>% 
  summarize(count = n())
by_origin_monthly

## # A tibble: 36 x 3
## # Groups:   origin [?]
##    origin month count
##    <chr>  <int> <int>
##  1 EWR        1  9893
##  2 EWR        2  9107
##  3 EWR        3 10420
##  4 EWR        4 10531
##  5 EWR        5 10592
##  6 EWR        6 10175
##  7 EWR        7 10475
##  8 EWR        8 10359
##  9 EWR        9  9550
## 10 EWR       10 10104
## # ... with 26 more rows
…
(LC5.12) What can we say about the distribution of gain? Describe it in a few sentences using the plot and the gain_summary data frame values.

Reorder the data frame using arrange

One of the most common things people working with data would like to do is sort the data frames by a specific variable in a column. Have you ever been asked to calculate a median by hand? This requires you to put the data in order from smallest to highest in value. The dplyr package has a function called arrange that we will use to sort/reorder our data according to the values of the specified variable. This is often used after we have used the group_by and summarize functions as we will see.

Lets suppose we were interested in determining the most frequent destination airports from New York City in 2013:

freq_dest <- flights %>% 
  group_by(dest) %>% 
  summarize(num_flights = n())
freq_dest

## # A tibble: 105 x 2
##    dest  num_flights
##    <chr>       <int>
##  1 ABQ           254
##  2 ACK           265
##  3 ALB           439
##  4 ANC             8
##  5 ATL         17215
##  6 AUS          2439
##  7 AVL           275
##  8 BDL           443
##  9 BGR           375
## 10 BHM           297
## # ... with 95 more rows

Youll see that by default the values of dest are displayed in alphabetical order here. We are interested in finding those airports that appear most:

freq_dest %>% 
  arrange(num_flights)

## # A tibble: 105 x 2
##    dest  num_flights
##    <chr>       <int>
##  1 LEX             1
##  2 LGA             1
##  3 ANC             8
##  4 SBN            10
##  5 HDN            15
##  6 MTJ            15
##  7 EYW            17
##  8 PSP            19
##  9 JAC            25
## 10 BZN            36
## # ... with 95 more rows

This is actually giving us the opposite of what we are looking for. It tells us the least frequent destination airports first. To switch the ordering to be descending instead of ascending we use the desc (descending) function:

freq_dest %>% 
  arrange(desc(num_flights))

## # A tibble: 105 x 2
##    dest  num_flights
##    <chr>       <int>
##  1 ORD         17283
##  2 ATL         17215
##  3 LAX         16174
##  4 BOS         15508
##  5 MCO         14082
##  6 CLT         14064
##  7 SFO         13331
##  8 FLL         12055
##  9 MIA         11728
## 10 DCA          9705
## # ... with 95 more rows
…
flights %>% 
  inner_join(airports, by = c("dest" = "faa"))

Lets construct the sequence of commands that computes the number of flights from NYC to each destination, but also includes information about each destination airport:

named_dests <- flights %>%
  group_by(dest) %>%
  summarize(num_flights = n()) %>%
  arrange(desc(num_flights)) %>%
  inner_join(airports, by = c("dest" = "faa")) %>%
  rename(airport_name = name)
named_dests

## # A tibble: 101 x 9
##    dest  num_flights airport_name      lat    lon   alt    tz dst   tzone 
##    <chr>       <int> <chr>           <dbl>  <dbl> <int> <dbl> <chr> <chr> 
##  1 ORD         17283 Chicago Ohare   42.0  -87.9   668    -6 A     Ameri
##  2 ATL         17215 Hartsfield Jac  33.6  -84.4  1026    -5 A     Ameri
##  3 LAX         16174 Los Angeles In  33.9 -118.    126    -8 A     Ameri
##  4 BOS         15508 General Edward  42.4  -71.0    19    -5 A     Ameri
##  5 MCO         14082 Orlando Intl     28.4  -81.3    96    -5 A     Ameri
##  6 CLT         14064 Charlotte Doug  35.2  -80.9   748    -5 A     Ameri
##  7 SFO         13331 San Francisco   37.6 -122.     13    -8 A     Ameri
##  8 FLL         12055 Fort Lauderdal  26.1  -80.2     9    -5 A     Ameri
##  9 MIA         11728 Miami Intl       25.8  -80.3     8    -5 A     Ameri
## 10 DCA          9705 Ronald Reagan   38.9  -77.0    15    -5 A     Ameri
## # ... with 91 more rows

In case you didnt know, "ORD" is the airport code of Chicago OHare airport and "FLL" is the main airport in Fort Lauderdale, Florida, which we can now see in our named_dests data frame.

Joining by multiple key variables

Say instead we are in a situation where we need to join by multiple variables. For example, in Figure @ref(fig:reldiagram) above we see that in order to join the flights and weather data frames, we need more than one key variable: year, month, day, hour, and origin. This is because the combination of these 5 variables act to uniquely identify each observational unit in the weather data frame: hourly weather recordings at each of the 3 NYC airports.

We achieve this by specifying a vector of key variables to join by using the c() concatenate function. Note the individual variables need to be wrapped in quotation marks.

flights_weather_joined <- flights %>%
  inner_join(weather, 
             by = c("year", "month", "day", "hour", "origin"))
flights_weather_joined

## # A tibble: 335,220 x 32
##     year month   day dep_time sched_dep_time dep_delay arr_time
##    <dbl> <dbl> <int>    <int>          <int>     <dbl>    <int>
##  1  2013     1     1      517            515         2      830
##  2  2013     1     1      533            529         4      850
##  3  2013     1     1      542            540         2      923
##  4  2013     1     1      544            545        -1     1004
##  5  2013     1     1      554            600        -6      812
##  6  2013     1     1      554            558        -4      740
##  7  2013     1     1      555            600        -5      913
##  8  2013     1     1      557            600        -3      709
##  9  2013     1     1      557            600        -3      838
## 10  2013     1     1      558            600        -2      753
## # ... with 335,210 more rows, and 25 more variables: sched_arr_time <int>,
## #   arr_delay <dbl>, carrier <chr>, flight <int>, tailnum <chr>,
## #   origin <chr>, dest <chr>, air_time <dbl>, distance <dbl>, hour <dbl>,
## #   minute <dbl>, time_hour.x <dttm>, gain <dbl>, hours <dbl>,
## #   gain_per_hour <dbl>, temp <dbl>, dewp <dbl>, humid <dbl>,
## #   wind_dir <dbl>, wind_speed <dbl>, wind_gust <dbl>, precip <dbl>,
## #   pressure <dbl>, visib <dbl>, time_hour.y <dttm>
…
